%YAML 1.1
%TAG !u! tag:unity3d.com,2011:
--- !u!1 &155668
GameObject:
  m_ObjectHideFlags: 0
  m_CorrespondingSourceObject: {fileID: 0}
  m_PrefabInstance: {fileID: 0}
  m_PrefabAsset: {fileID: 0}
  serializedVersion: 6
  m_Component:
  - component: {fileID: 414352}
  - component: {fileID: 2093728}
  - component: {fileID: 12434702}
  - component: {fileID: 8123696}
  - component: {fileID: 6458313209848080880}
  - component: {fileID: 11486748}
  m_Layer: 0
  m_Name: vThirdPersonController
  m_TagString: MainCamera
  m_Icon: {fileID: 0}
  m_NavMeshLayer: 0
  m_StaticEditorFlags: 0
  m_IsActive: 1
--- !u!4 &414352
Transform:
  m_ObjectHideFlags: 0
  m_CorrespondingSourceObject: {fileID: 0}
  m_PrefabInstance: {fileID: 0}
  m_PrefabAsset: {fileID: 0}
  m_GameObject: {fileID: 155668}
  m_LocalRotation: {x: 0, y: 0, z: 0, w: 1}
  m_LocalPosition: {x: 0, y: 0, z: 0}
  m_LocalScale: {x: 1, y: 1, z: 1}
  m_Children: []
  m_Father: {fileID: 0}
  m_RootOrder: 0
  m_LocalEulerAnglesHint: {x: 0, y: 0, z: 0}
--- !u!20 &2093728
Camera:
  m_ObjectHideFlags: 0
  m_CorrespondingSourceObject: {fileID: 0}
  m_PrefabInstance: {fileID: 0}
  m_PrefabAsset: {fileID: 0}
  m_GameObject: {fileID: 155668}
  m_Enabled: 1
  serializedVersion: 2
  m_ClearFlags: 1
  m_BackGroundColor: {r: 0.19215687, g: 0.3019608, b: 0.4745098, a: 0.019607844}
  m_projectionMatrixMode: 1
  m_GateFitMode: 2
  m_FOVAxisMode: 0
  m_SensorSize: {x: 36, y: 24}
  m_LensShift: {x: 0, y: 0}
  m_FocalLength: 50
  m_NormalizedViewPortRect:
    serializedVersion: 2
    x: 0
    y: 0
    width: 1
    height: 1
  near clip plane: 0.01
  far clip plane: 1000
  field of view: 60
  orthographic: 0
  orthographic size: 5
  m_Depth: 0
  m_CullingMask:
    serializedVersion: 2
    m_Bits: 4294967295
  m_RenderingPath: -1
  m_TargetTexture: {fileID: 0}
  m_TargetDisplay: 0
  m_TargetEye: 3
  m_HDR: 0
  m_AllowMSAA: 1
  m_AllowDynamicResolution: 0
  m_ForceIntoRT: 0
  m_OcclusionCulling: 1
  m_StereoConvergence: 10
  m_StereoSeparation: 0.022
--- !u!124 &12434702
Behaviour:
  m_ObjectHideFlags: 0
  m_CorrespondingSourceObject: {fileID: 0}
  m_PrefabInstance: {fileID: 0}
  m_PrefabAsset: {fileID: 0}
  m_GameObject: {fileID: 155668}
  m_Enabled: 1
--- !u!81 &8123696
AudioListener:
  m_ObjectHideFlags: 0
  m_CorrespondingSourceObject: {fileID: 0}
  m_PrefabInstance: {fileID: 0}
  m_PrefabAsset: {fileID: 0}
  m_GameObject: {fileID: 155668}
  m_Enabled: 1
--- !u!114 &6458313209848080880
MonoBehaviour:
  m_ObjectHideFlags: 0
  m_CorrespondingSourceObject: {fileID: 0}
  m_PrefabInstance: {fileID: 0}
  m_PrefabAsset: {fileID: 0}
  m_GameObject: {fileID: 155668}
  m_Enabled: 1
  m_EditorHideFlags: 0
  m_Script: {fileID: 11500000, guid: 6cd4729c4f7dc1447b4205e70be21f1f, type: 3}
  m_Name: 
  m_EditorClassIdentifier: 
  npcWindow: {fileID: 0}
  chatText: {fileID: 0}
  leftText: {fileID: 0}
  upText: {fileID: 0}
  rightText: {fileID: 0}
  greeting: 
  left1: 
  leftResponse1: 
  up1: 
  up1Response1: 
  right1: 
  rightResponse1: 
  left2: 
  leftResponse2: 
  up2: 
  up1Response2: 
  right2: 
  rightResponse2: 
  left3: 
  leftResponse3: 
  up3: 
  up1Response3: 
  right3: 
  rightResponse3: 
--- !u!114 &11486748
MonoBehaviour:
  m_ObjectHideFlags: 0
  m_CorrespondingSourceObject: {fileID: 0}
  m_PrefabInstance: {fileID: 0}
  m_PrefabAsset: {fileID: 0}
  m_GameObject: {fileID: 155668}
  m_Enabled: 1
  m_EditorHideFlags: 0
  m_Script: {fileID: 11500000, guid: 1a1bfe72fbc87d04e885296b53e91c66, type: 3}
  m_Name: 
  m_EditorClassIdentifier: 
  target: {fileID: 0}
  smoothCameraRotation: 12
  cullingLayer:
    serializedVersion: 2
    m_Bits: 1
  lockCamera: 0
  rightOffset: 0
  defaultDistance: 2.5
  height: 1.4
  smoothFollow: 10
  xMouseSensitivity: 3
  yMouseSensitivity: 3
  yMinLimit: -40
  yMaxLimit: 80
  indexList: 0
  indexLookPoint: 0
  offSetPlayerPivot: 0
  currentStateName: 
  currentTarget: {fileID: 0}
  movementSpeed: {x: 0, y: 0}
